Preppin' Data Week 3 | sgee R Tips
…
dat %>% 
  pivot_longer(`New - Saddles`:`Existing - Bags`, names_to = 'product_type', values_to = 'sales') %>% 
  separate(product_type, into = c('customer_type', 'product')) %>%
  rename(`Products Sold` = sales) %>% 
  mutate(quarter = quarter(Date)) %>%
  group_by(store, customer_type, product) %>% 
  summarise(`Products Sold` = sum(`Products Sold`))

## `summarise()` regrouping output by 'store', 'customer_type' (override with `.groups` argument)

## # A tibble: 40 x 4
## # Groups:   store, customer_type [10]
##    store      customer_type product   `Products Sold`
##    <chr>      <chr>         <chr>               <dbl>
##  1 Birmingham Existing      Bags                  218
##  2 Birmingham Existing      Mudguards             266
##  3 Birmingham Existing      Saddles               185
##  4 Birmingham Existing      Wheels                 78
##  5 Birmingham New           Bags                  312
##  6 Birmingham New           Mudguards             256
##  7 Birmingham New           Saddles               123
##  8 Birmingham New           Wheels                137
##  9 Leeds      Existing      Bags                  246
## 10 Leeds      Existing      Mudguards             180
## # … with 30 more rows
